<svg viewBox="0 0 486 768" fill="none" preserveAspectRatio="none" xmlns="http://www.w3.org/2000/svg">
<path fill-rule="evenodd" clip-rule="evenodd" d="M-16 334.635V272.568C-16 259.846 -5.56582 249.822 6.80062 249.822H95.6844V230.161C96.4573 82.5093 217.03 -37 365.427 -37C408.71 -37 449.674 -26.5911 486 -8.47196L440.399 89.0631C417.985 77.4977 392.479 70.5584 365.427 70.5584C276.544 70.5584 204.277 141.878 203.504 230.161V249.822H365.427L321.372 344.273C317.507 352.369 309.778 357.381 300.503 357.381H203.504V765.255C203.504 777.591 193.07 788 180.704 788H118.485C105.732 788 95.6844 777.591 95.6844 765.255V357.381H6.80062C-5.56582 357.381 -16 346.972 -16 334.635Z" fill="#F3F3F3"/>
</svg>
