<svg viewBox="0 0 54 52" preserveAspectRatio="none" fill="none" xmlns="http://www.w3.org/2000/svg">
<path d="M4.94502 35.4436L31.612 12.7941L37.8935 47.2131L4.94502 35.4436Z" stroke="black" stroke-width="5"/>
</svg>
