<svg viewBox="0 0 1147 214" preserveAspectRatio="none" fill="none" xmlns="http://www.w3.org/2000/svg">
<path d="M59.9239 169.226H169.823V212H2V2H165.848V44.7743H59.9239H57.9239V46.7743V82.8486V84.8486H59.9239H153.007V126.094H59.9239H57.9239V128.094V167.226V169.226H59.9239ZM325.035 140.189L383.829 2H439.398L349.392 212H292.413L202.707 2H263.772L321.348 140.175L323.175 144.559L325.035 140.189ZM537.813 169.226H647.711V212H479.889V2H643.737V44.7743H537.813H535.813V46.7743V82.8486V84.8486H537.813H630.896V126.094H537.813H535.813V128.094V167.226V169.226H537.813ZM852.541 114.031V2H907.853V212H860.959L767.087 98.6926L763.546 94.4196V99.9686V212H708.234V2H755.128L849 115.307L852.541 119.58V114.031ZM1023.04 47.9971V45.9971H1021.04H957.305V2H1145V45.9971H1081.57H1079.57V47.9971V212H1023.04V47.9971Z" stroke="white" stroke-width="4"/>
</svg>
