<svg width="44" height="55" viewBox="0 0 44 55" fill="none" xmlns="http://www.w3.org/2000/svg">
<path d="M30.3391 0H8.6335C5.46193 0 2.87919 2.6283 2.87919 5.85168V27.4979H2.31878C1.03959 27.4979 0 28.5559 0 29.8576V44.1645C0 45.4662 1.03959 46.5242 2.31878 46.5242H2.87919V49.1442C2.87919 52.3758 5.46193 55 8.6335 55H38.2497C41.4213 55 44 52.3758 44 49.1442V13.8523L30.3391 0ZM3.71574 32.8537H7.96751C8.95432 32.8537 9.82741 33.0438 10.5909 33.4157C11.3503 33.7918 11.9431 34.3249 12.3614 35.0109C12.7838 35.701 12.9909 36.5069 12.9909 37.4326C12.9909 38.3541 12.7838 39.16 12.3614 39.8501C11.9431 40.5402 11.3503 41.0692 10.5909 41.4453C9.82741 41.8213 8.95432 42.0073 7.96751 42.0073H3.71574V32.8537ZM7.86599 39.941C8.63756 39.941 9.25482 39.7179 9.72183 39.2757C10.1888 38.8294 10.4203 38.2136 10.4203 37.4326C10.4203 36.6474 10.1888 36.0316 9.72183 35.5895C9.25482 35.1431 8.63756 34.92 7.86599 34.92H6.25787V39.941H7.86599ZM18.8629 42.1891C17.9127 42.1891 17.0599 41.9866 16.3005 41.5775C15.5411 41.1642 14.9482 40.5981 14.5137 39.8749C14.0832 39.1517 13.864 38.3376 13.864 37.4326C13.864 36.5234 14.0832 35.7093 14.5137 34.9861C14.9482 34.2629 15.5411 33.6967 16.3005 33.2876C17.0599 32.8785 17.9127 32.6719 18.8629 32.6719C19.8132 32.6719 20.6701 32.8785 21.4254 33.2876C22.1848 33.6967 22.7817 34.2629 23.2122 34.9861C23.6467 35.7093 23.8619 36.5234 23.8619 37.4326C23.8619 38.3376 23.6467 39.1517 23.2122 39.8749C22.7817 40.5981 22.1848 41.1642 21.4254 41.5775C20.6701 41.9866 19.8132 42.1891 18.8629 42.1891ZM18.8629 40.0443C19.3178 40.0443 19.7279 39.9369 20.0975 39.7179C20.467 39.503 20.7553 39.193 20.9706 38.7963C21.1858 38.3996 21.2914 37.945 21.2914 37.4326C21.2914 36.916 21.1858 36.4614 20.9706 36.0647C20.7553 35.668 20.467 35.3622 20.0975 35.1431C19.7279 34.9241 19.3178 34.8167 18.8629 34.8167C18.4081 34.8167 17.998 34.9241 17.6284 35.1431C17.2629 35.3622 16.9706 35.668 16.7553 36.0647C16.5401 36.4614 16.4345 36.916 16.4345 37.4326C16.4345 37.945 16.5401 38.3996 16.7553 38.7963C16.9706 39.193 17.2629 39.503 17.6284 39.7179C17.998 39.9369 18.4081 40.0443 18.8629 40.0443ZM29.6812 42.1891C28.7391 42.1891 27.8944 41.9866 27.1431 41.5816C26.3959 41.1766 25.8071 40.6105 25.3766 39.8873C24.9503 39.1641 24.735 38.3459 24.735 37.4326C24.735 36.5151 24.9503 35.6969 25.3766 34.9737C25.8071 34.2505 26.3959 33.6844 27.1431 33.2794C27.8944 32.8744 28.7391 32.6719 29.6812 32.6719C30.5056 32.6719 31.2447 32.8206 31.9025 33.1182C32.5645 33.4116 33.1127 33.8414 33.5472 34.3993L31.931 35.887C31.3462 35.1721 30.6396 34.8167 29.8112 34.8167C29.3198 34.8167 28.8853 34.9241 28.5076 35.1431C28.1259 35.3622 27.8294 35.668 27.6183 36.0647C27.4112 36.4614 27.3056 36.916 27.3056 37.4326C27.3056 37.945 27.4112 38.3996 27.6183 38.7963C27.8294 39.193 28.1259 39.503 28.5076 39.7179C28.8853 39.9369 29.3198 40.0443 29.8112 40.0443C30.6396 40.0443 31.3462 39.6889 31.931 38.974L33.5472 40.4659C33.1127 41.0237 32.5645 41.4494 31.9025 41.7469C31.2447 42.0403 30.5056 42.1891 29.6812 42.1891ZM38.2497 51.413H8.6335C7.40305 51.413 6.40406 50.3964 6.40406 49.1442V46.5242H34.0142C35.2934 46.5242 36.333 45.4662 36.333 44.1645V29.8576C36.333 28.5559 35.2934 27.4979 34.0142 27.4979H6.40406V5.85168C6.40406 4.60778 7.40305 3.58705 8.6335 3.58705L29.0234 3.56638V11.2364C29.0234 13.4762 30.8061 15.2945 33.0112 15.2945L40.3939 15.2739L40.4751 49.1442C40.4751 50.3964 39.4802 51.413 38.2497 51.413Z" fill="#EC6C1E"/>
</svg>
