<svg width="145" height="122" viewBox="0 0 145 122" fill="none" xmlns="http://www.w3.org/2000/svg">
<path d="M106.975 94.2823C111.609 85.303 116.243 80.8134 120.876 76.3238C120.876 71.8341 125.51 67.3445 125.51 67.3445C125.51 62.8549 125.51 62.8549 130.144 62.8549V58.3652C125.51 58.3652 125.51 53.8756 125.51 53.8756C125.51 49.386 120.876 49.386 120.876 44.8963C116.243 40.4067 111.609 31.4274 106.975 26.9378C106.975 22.4482 106.975 22.4482 102.342 17.9585V13.4689H97.7078C93.0742 13.4689 93.0742 13.4689 88.4405 13.4689C83.8068 13.4689 79.1731 13.4689 74.5394 13.4689C65.272 13.4689 56.0047 13.4689 46.7373 13.4689C65.272 13.4689 83.8068 13.4689 102.342 13.4689V17.9585L106.975 26.9378C111.609 31.4274 111.609 31.4274 116.243 35.9171C116.243 40.4067 120.876 44.8963 125.51 49.386C125.51 53.8756 125.51 53.8756 125.51 58.3652H130.144C130.144 58.3652 130.144 58.3652 130.144 62.8549C125.51 62.8549 125.51 62.8549 125.51 67.3445C125.51 67.3445 120.876 71.8341 120.876 76.3238C116.243 80.8134 111.609 85.303 106.975 94.2823C111.609 89.7927 111.609 80.8134 116.243 76.3238C116.243 71.8341 120.876 67.3445 120.876 67.3445C120.876 62.8549 125.51 62.8549 125.51 58.3652L120.876 53.8756C120.876 49.386 116.243 49.386 116.243 44.8963C111.609 40.4067 111.609 31.4274 106.975 26.9378L102.342 22.4482V17.9585H97.7078C83.8068 17.9585 65.272 17.9585 46.7373 17.9585L42.1036 22.4482C42.1036 26.9378 37.4699 26.9378 37.4699 31.4274C32.8362 35.9171 32.8362 44.8963 28.2025 49.386C28.2025 49.386 28.2025 49.386 32.8362 49.386C28.2025 49.386 28.2025 49.386 28.2025 49.386C32.8362 44.8963 37.4699 35.9171 37.4699 31.4274C42.1036 26.9378 46.7373 22.4482 46.7373 17.9585C56.0047 17.9585 65.272 17.9585 74.5394 17.9585C79.1731 17.9585 83.8068 17.9585 88.4405 17.9585C93.0742 17.9585 93.0742 17.9585 97.7078 17.9585L102.342 22.4482C102.342 22.4482 102.342 26.9378 106.975 26.9378C106.975 31.4274 111.609 35.9171 116.243 40.4067C111.609 35.9171 106.975 31.4274 106.975 26.9378C102.342 26.9378 102.342 22.4482 102.342 22.4482L97.7078 17.9585C93.0742 17.9585 93.0742 17.9585 88.4405 17.9585C83.8068 17.9585 79.1731 17.9585 74.5394 17.9585C69.9057 17.9585 60.6383 17.9585 56.0047 17.9585H51.371H46.7373C37.4699 31.4274 32.8362 44.8963 23.5688 58.3652V62.8549C28.2025 62.8549 28.2025 67.3445 28.2025 67.3445C32.8362 71.8341 32.8362 76.3238 37.4699 80.8134C42.1036 85.303 46.7373 94.2823 51.371 98.7719C51.371 98.7719 56.0047 98.7719 60.6383 98.7719C69.9057 103.262 97.7078 103.262 102.342 103.262L106.975 94.2823ZM93.0742 116.73C88.4405 116.73 79.1731 121.22 69.9057 121.22C65.272 121.22 65.272 121.22 60.6383 121.22C51.371 121.22 46.7373 121.22 42.1036 121.22C32.8362 112.241 28.2025 98.7719 23.5688 89.7927C18.9351 89.7927 18.9351 85.303 14.3015 80.8134C14.3015 76.3238 9.66777 76.3238 9.66777 76.3238C9.66777 71.8341 5.03408 71.8341 5.03408 67.3445L0.400391 58.3652C5.03408 49.386 9.66777 40.4067 18.9351 31.4274C18.9351 26.9378 23.5688 22.4482 23.5688 17.9585C28.2025 13.4689 32.8362 4.48963 32.8362 0H46.7373H51.371C60.6383 0 69.9057 0 79.1731 0C83.8068 0 88.4405 0 88.4405 0C93.0742 0 93.0742 0 97.7078 0C102.342 0 106.975 0 106.975 0L116.243 13.4689C116.243 13.4689 116.243 13.4689 120.876 17.9585C120.876 22.4482 125.51 26.9378 125.51 31.4274C130.144 35.9171 134.777 35.9171 134.777 40.4067C134.777 44.8963 139.411 44.8963 139.411 49.386C144.045 53.8756 144.045 53.8756 144.045 58.3652C144.045 62.8549 144.045 62.8549 144.045 67.3445C139.411 67.3445 139.411 67.3445 139.411 71.8341L134.777 80.8134C130.144 85.303 130.144 89.7927 125.51 89.7927L111.609 116.73C111.609 116.73 97.7078 116.73 93.0742 116.73ZM134.777 71.8341L144.045 58.3652C139.411 53.8756 134.777 49.386 130.144 40.4067L120.876 22.4482L116.243 13.4689L111.609 8.97927L106.975 4.48963H102.342H97.7078H93.0742H83.8068H69.9057C74.5394 4.48963 79.1731 4.48963 83.8068 4.48963C88.4405 4.48963 93.0742 4.48963 93.0742 4.48963H97.7078H102.342H106.975C111.609 8.97927 116.243 17.9585 120.876 22.4482C125.51 31.4274 125.51 35.9171 130.144 40.4067L134.777 49.386L144.045 58.3652L139.411 67.3445L134.777 71.8341Z" fill="white" fill-opacity="0.2"/>
</svg>
