<svg width="12" height="20" viewBox="0 0 12 20" xmlns="http://www.w3.org/2000/svg">
<path d="M5.97718 2.37948C7.51972 2.37948 8.76824 3.61944 8.76824 5.15628C8.76824 6.68875 7.51972 7.92871 5.97718 7.92871C4.43683 7.92871 3.18832 6.68875 3.18832 5.15628C3.18832 3.61944 4.43683 2.37948 5.97718 2.37948ZM5.97718 10.3082C8.83626 10.3082 11.1578 7.99856 11.1578 5.15628C11.1578 2.30963 8.83626 0 5.97718 0C3.1181 0 0.796607 2.30963 0.796607 5.15628C0.800996 7.99856 3.1181 10.3016 5.97718 10.3082Z"/>
<path d="M11.0524 13.7012C11.612 13.3367 11.9499 12.7145 11.9521 12.0509V11.9941C11.9477 11.4549 11.6339 10.9637 11.1446 10.7258C10.6289 10.4682 10.0102 10.5271 9.54938 10.8721C7.42098 12.4198 4.53777 12.4198 2.40278 10.8721C1.94419 10.5293 1.3298 10.4704 0.81416 10.7258C0.309487 10.9703 -0.00648179 11.4811 0.000100898 12.0378C0.00229513 12.7058 0.342401 13.3301 0.906317 13.7012C1.62602 14.1793 2.41156 14.5526 3.23878 14.8102C3.37702 14.8539 3.52403 14.8954 3.67324 14.9325L1.26398 17.277C0.632039 17.8839 0.616679 18.8903 1.23106 19.5146C1.84325 20.1433 2.8526 20.1608 3.48673 19.5517C3.4977 19.5386 3.50867 19.5255 3.52403 19.5124L5.97718 16.9867L8.4391 19.5146C9.0491 20.1477 10.0584 20.163 10.6904 19.5517C11.3223 18.9427 11.3399 17.9407 10.7255 17.312C10.7145 17.2989 10.7014 17.2836 10.6882 17.2705L8.28331 14.9303C8.43252 14.8954 8.57734 14.8517 8.71777 14.808C9.545 14.5526 10.3305 14.1793 11.0524 13.7012Z"/>
</svg>
