<svg width="22" height="22" viewBox="0 0 22 22" xmlns="http://www.w3.org/2000/svg">
<path d="M15.9471 0H6.05291C2.67725 0 0 2.67725 0 6.05291V15.9471C0 19.2064 2.67725 22 6.05291 22H15.9471C19.2064 22 22 19.2064 22 15.9471V6.05291C22 2.67725 19.2064 0 15.9471 0ZM20.0212 15.9471C20.0212 18.1587 18.1587 20.0212 15.9471 20.0212H6.05291C3.84127 20.0212 1.97884 18.1587 1.97884 15.9471V6.05291C1.97884 3.84127 3.84127 1.97884 6.05291 1.97884H15.9471C18.1587 1.97884 20.0212 3.84127 20.0212 6.05291V15.9471Z"/>
<path d="M10.9417 5.35449C7.91527 5.35449 5.35442 7.91534 5.35442 10.9418C5.35442 14.0846 7.91527 16.6455 10.9417 16.6455C14.0846 16.6455 16.6454 14.0846 16.6454 10.9418C16.6454 7.91534 14.0846 5.35449 10.9417 5.35449ZM10.9417 14.6667C8.96289 14.6667 7.21685 13.037 7.21685 10.9418C7.21685 8.96296 8.96289 7.33333 10.9417 7.33333C13.037 7.33333 14.6666 8.96296 14.6666 10.9418C14.6666 13.037 13.037 14.6667 10.9417 14.6667Z"/>
<path d="M16.8783 3.72486C16.5291 3.72486 16.1799 3.84126 15.8307 4.07406C15.5979 4.30687 15.4815 4.77248 15.4815 5.12168C15.4815 5.47089 15.5979 5.8201 15.8307 6.1693C16.1799 6.40211 16.5291 6.51851 16.8783 6.51851C17.2275 6.51851 17.5767 6.40211 17.926 6.1693C18.1588 5.8201 18.2752 5.47089 18.2752 5.12168C18.2752 4.77248 18.1588 4.30687 17.926 4.07406C17.5767 3.84126 17.2275 3.72486 16.8783 3.72486Z"/>
</svg>
