<svg width="22" height="20" viewBox="0 0 22 20" fill="none" xmlns="http://www.w3.org/2000/svg">
<path d="M1.74846e-07 20L0 16L22 16V20H1.74846e-07Z" fill="#EC6C1E"/>
<path d="M1.74846e-07 12L0 8L22 8V12L1.74846e-07 12Z" fill="#EC6C1E"/>
<path d="M1.74846e-07 4L0 9.61651e-07L22 0V4L1.74846e-07 4Z" fill="#EC6C1E"/>
</svg>
